Was this the best free throw shooting season of all time? - Gavin Struve's Github Site
…
ftfiveyr

## # A tibble: 27 x 4
##    School                     FT   FTA FTPerc
##    <chr>                   <dbl> <dbl>  <dbl>
##  1 2021 Oral Roberts         407   496  0.821
##  2 2021 Colorado             438   535  0.819
##  3 2021 Virginia             235   288  0.816
##  4 2021 Detroit Mercy        262   326  0.804
##  5 2021 Lafayette            226   281  0.804
##  6 2020 North Dakota State   490   614  0.798
##  7 2020 Kentucky             560   703  0.797
##  8 2020 Pepperdine           506   639  0.792
##  9 2020 Northeastern         366   463  0.79 
## 10 2020 Western Kentucky     527   668  0.789
## # … with 17 more rows
…
Use NBA example then maybe a step chart showing free throw shooting nationwide this season compared to past years

fts <- read_csv("cbbrfr.csv")

## 
## ── Column specification ────────────────────────────────────────────────────────
## cols(
##   .default = col_double(),
##   School = col_character()
## )
## ℹ Use `spec()` for the full column specifications.

fts

## # A tibble: 347 x 32
##    School Games TotalWins TotalLosses WLPerc    SRS    SOS ConfWins ConfLosses
##    <chr>  <dbl>     <dbl>       <dbl>  <dbl>  <dbl>  <dbl>    <dbl>      <dbl>
##  1 Abile…    29        24           5  0.828   6.24  -6.4        13          2
##  2 Air F…    25         5          20  0.2   -12.9    0.27        3         17
##  3 Akron     23        15           8  0.652   1.86  -1.95       12          6
##  4 Alaba…    15         6           9  0.4   -18.9  -15.0         4          9
##  5 Alaba…    29        22           7  0.759   5.81  -3.82       13          5
##  6 Alaba…    18         4          14  0.222 -24.3  -17.0         4         14
##  7 Alaba…    33        26           7  0.788  19.6    9.99       16          2
##  8 Alban…    16         7           9  0.438  -4.55  -5.24        6          6
##  9 Alcor…    19         6          13  0.316 -19.6  -10.1         6          7
## 10 Ameri…    10         4           6  0.4    -6.32  -1.82        4          5
## # … with 337 more rows, and 23 more variables: HomeWins <dbl>,
## #   HomeLosses <dbl>, RoadWins <dbl>, RoadLosses <dbl>, TeamPts <dbl>,
## #   OppPts <dbl>, TotalMins <dbl>, TotalFG <dbl>, TotalFGA <dbl>, FGPerc <dbl>,
## #   Total3P <dbl>, Total3PA <dbl>, `3PPerc` <dbl>, TotalFT <dbl>,
## #   TotalFTA <dbl>, FTPerc <dbl>, TotalOReb <dbl>, TotalReb <dbl>,
## #   TotalAst <dbl>, TotalStl <dbl>, TotalBlk <dbl>, TotalTOV <dbl>,
## #   TotalFouls <dbl>
…
