Trying new table libraries | Gavin Struve's Github Site
…
badfball %>% separate(Result, into=c("Outcome", "Score"), sep="\\(") 

## # A tibble: 1,100 x 52
##     Game Date  HomeAway Opponent Outcome Score PassingCmp PassingAtt PassingPct
##    <dbl> <chr> <chr>    <chr>    <chr>   <chr>      <dbl>      <dbl>      <dbl>
##  1     1 10/2… <NA>     Nebraska "W "    52-1…         20         21       95.2
##  2     2 10/3… @        Penn St… "W "    38-2…         28         34       82.4
##  3     3 11/7… <NA>     Rutgers  "W "    49-2…         24         28       85.7
##  4     4 11/2… <NA>     Indiana  "W "    42-3…         18         30       60  
##  5     5 12/5… @        Michiga… "W "    52-1…         17         24       70.8
##  6     6 12/1… N        Northwe… "W "    22-1…         12         27       44.4
##  7     7 1/1/… N        Clemson* "W "    49-2…         22         28       78.6
##  8     1 10/2… <NA>     Penn St… "W "    36-3…         19         36       52.8
##  9     2 10/3… @        Rutgers  "W "    37-2…         17         26       65.4
## 10     3 11/7… <NA>     Michigan "W "    38-2…         30         50       60  
## # … with 1,090 more rows, and 43 more variables: PassingYds <dbl>,
## #   PassingTD <dbl>, RushingAtt <dbl>, RushingYds <dbl>, RushingAvg <dbl>,
## #   RushingTD <dbl>, OffensivePlays <dbl>, OffensiveYards <dbl>,
## #   OffenseAvg <dbl>, FirstDownPass <dbl>, FirstDownRush <dbl>,
## #   FirstDownPen <dbl>, FirstDownTotal <dbl>, Penalties <dbl>,
## #   PenaltyYds <dbl>, Fumbles <dbl>, Interceptions <dbl>, TotalTurnovers <dbl>,
## #   TeamFull <chr>, TeamURL <chr>, DefPassingCmp <dbl>, DefPassingAtt <dbl>,
## #   DefPassingPct <dbl>, DefPassingYds <dbl>, DefPassingTD <dbl>,
## #   DefRushingAtt <dbl>, DefRushingYds <dbl>, DefRushingAvg <dbl>,
…
newbadfball <- badfball %>% separate(Result, into=c("Outcome", "Score"), sep="\\(") %>% mutate(Score=gsub(")","", Score)) %>%
separate(Score, into=c("TeamScore", "OpponentScore"), sep="-" ) %>% 
mutate(TeamScore = as.numeric(TeamScore), OpponentScore = as.numeric(OpponentScore))

This separates score into teamscore and opponentscore using separate and splitting them at the “-”. It also creates a new dataframe called newbadfball that’s updated. I also mutated to add as.numeric which makes sure TeamScore and OpponentScore are numeric values, so R doesn’t mistake it for text and we’re able to make a differential.

differential <- newbadfball %>% mutate(diff = TeamScore - OpponentScore)

differential %>% filter(diff > 65) -> worstgames

I created a new dataframe called differential here that subtracts the opponent score from the team score of every game to get the scoring margin/point differential. I also created a dataframe called worstgames that only shows games in which a team won by over 65 points. It appears there was only one such game in this dataset, a 73-7 victory by Clemson over Georgia Tech. Ironically, Tech holds the record for the largest margin of victory all time for a Division One team, a 222-0 win in 1916.

differential

## # A tibble: 1,100 x 54
##     Game Date  HomeAway Opponent Outcome TeamScore OpponentScore PassingCmp
##    <dbl> <chr> <chr>    <chr>    <chr>       <dbl>         <dbl>      <dbl>
##  1     1 10/2… <NA>     Nebraska "W "           52            17         20
##  2     2 10/3… @        Penn St… "W "           38            25         28
##  3     3 11/7… <NA>     Rutgers  "W "           49            27         24
##  4     4 11/2… <NA>     Indiana  "W "           42            35         18
##  5     5 12/5… @        Michiga… "W "           52            12         17
##  6     6 12/1… N        Northwe… "W "           22            10         12
##  7     7 1/1/… N        Clemson* "W "           49            28         22
##  8     1 10/2… <NA>     Penn St… "W "           36            35         19
##  9     2 10/3… @        Rutgers  "W "           37            21         17
## 10     3 11/7… <NA>     Michigan "W "           38            21         30
## # … with 1,090 more rows, and 46 more variables: PassingAtt <dbl>,
## #   PassingPct <dbl>, PassingYds <dbl>, PassingTD <dbl>, RushingAtt <dbl>,
## #   RushingYds <dbl>, RushingAvg <dbl>, RushingTD <dbl>, OffensivePlays <dbl>,
## #   OffensiveYards <dbl>, OffenseAvg <dbl>, FirstDownPass <dbl>,
## #   FirstDownRush <dbl>, FirstDownPen <dbl>, FirstDownTotal <dbl>,
## #   Penalties <dbl>, PenaltyYds <dbl>, Fumbles <dbl>, Interceptions <dbl>,
## #   TotalTurnovers <dbl>, TeamFull <chr>, TeamURL <chr>, DefPassingCmp <dbl>,
## #   DefPassingAtt <dbl>, DefPassingPct <dbl>, DefPassingYds <dbl>,
## #   DefPassingTD <dbl>, DefRushingAtt <dbl>, DefRushingYds <dbl>,
…
