Reflecting on the impractical exercise of building a strong predictive model for the NCAA Tournament - Gavin Struve's Github Site
…
    19 min read

    Reflecting on the impractical exercise of building a strong predictive model   for the NCAA Tournament

    2022-04-05

Trying to craft a near-perfect bracket is difficult in itself. Attempting to build a predictive model without the nuances of human emotion for the NCAA Tournament can be an exercise in futility. But the idea is that you create a model that takes into account the factors and statistics that you you feed it and gives you a result that is more likely to be correct than your best guess while removing the element of human bias.

The problem is that basketball outcomes, even at the highest level (especially at the highest level), so often do not make sense. The NBA is perhaps the most difficult league to make a predictive model for, but the NCAA Tournament has to be the most improbable sports playoff event in terms of outcomes, and I am hardly the first to make that assertion. It may also be the most incalculable major sporting event.

Still, I took on the ill-fated endeavor of trying to predict the NCAA Tournament along with my classmates in building a machine learning model. For my predictors, I used sports reference’s simple rating system (a season-long metric that weighs average point differential with strength of schedule), kenpom’s adjusted efficiency margin (a measurement of a team’s average points per 100 possessions subtracted by points allowed per 100 possessions, both weighted by strength of schedule), kenpom’s luck metric, and plain old point differential. I added the latter because it illustrates how severely a game ended up as a win or loss but also lends credence to dominant mid majors. It brings a bit of needed variance to a model otherwise leaning toward favorites with its strength-based metrics like SRS and adjusted efficiency. Luck is also intended to add variance and show how a team got to a win or loss result.

All four of my predictors are season-based metrics, so I am doing without rolling metrics and fully leaning into the line of thinking that how much momentum a team has entering the tournament doesn’t matter. I also went away from stylistic and matchup-based measures (offensive rebounding rate, free throw rate, etc.) because most studies show they have a marginal impact on result unless teams occupy the extremes. I used a support vector machine as my machine learning model.

## # A tibble: 90,410 × 104
##    team_short_display_name team_uid team_alternate_… team_color team_display_na…
##    <chr>                   <chr>    <chr>            <chr>      <chr>           
##  1 Oakland                 s:40~l:… 927e4d           04091c     Oakland Golden …
##  2 Iowa State              s:40~l:… 830b2c           660015     Iowa State Cycl…
##  3 UCSB                    s:40~l:… fdb813           1D1160     UC Santa Barbar…
##  4 Kansas                  s:40~l:… e8000d           0022B4     Kansas Jayhawks 
##  5 SE Louisiana            s:40~l:… dca008           007550     SE Louisiana Li…
##  6 Oklahoma State          s:40~l:… ff9900           FF6500     Oklahoma State …
##  7 Southern Utah           s:40~l:… c2c3c0           d10000     Southern Utah T…
##  8 Kansas State            s:40~l:… e7d2ad           633194     Kansas State Wi…
##  9 McNeese                 s:40~l:… <NA>             00529C     McNeese Cowboys 
## 10 Baylor                  s:40~l:… ffb81c           004834     Baylor Bears    
## # … with 90,400 more rows, and 99 more variables: team_name <chr>,
## #   team_logo <chr>, team_location <chr>, team_id <dbl>,
## #   team_abbreviation <chr>, team_slug <chr>, field_goals_made <dbl>,
## #   field_goals_attempted <dbl>, field_goal_pct <dbl>,
## #   three_point_field_goals_made <dbl>,
## #   three_point_field_goals_attempted <dbl>, three_point_field_goal_pct <dbl>,
## #   free_throws_made <dbl>, free_throws_attempted <dbl>, …
…
